^C:\USERS\USER\SOURCE\REPOS\SKILLBOX_17\DEBUG\SKILLBOX_17.OBJ
/OUT:"C:\USERS\USER\SOURCE\REPOS\SKILLBOX_17\DEBUG\SKILLBOX_17.EXE" /INCREMENTAL /NOLOGO KERNEL32.LIB USER32.LIB GDI32.LIB WINSPOOL.LIB COMDLG32.LIB ADVAPI32.LIB SHELL32.LIB OLE32.LIB OLEAUT32.LIB UUID.LIB ODBC32.LIB ODBCCP32.LIB /MANIFEST /MANIFESTUAC:"level='asInvoker' uiAccess='false'" /manifest:embed /DEBUG:FASTLINK /PDB:"C:\USERS\USER\SOURCE\REPOS\SKILLBOX_17\DEBUG\SKILLBOX_17.PDB" /SUBSYSTEM:CONSOLE /TLBID:1 /DYNAMICBASE /NXCOMPAT /IMPLIB:"C:\USERS\USER\SOURCE\REPOS\SKILLBOX_17\DEBUG\SKILLBOX_17.LIB" /MACHINE:X86 DEBUG\SKILLBOX_17.OBJ
^E:\ЗАГРУЗКИ\SKILLBOX17-MASTER\SKILLBOX17-MASTER\DEBUG\SKILLBOX_17.OBJ
/OUT:"E:\ЗАГРУЗКИ\SKILLBOX17-MASTER\SKILLBOX17-MASTER\DEBUG\SKILLBOX_17.EXE" /INCREMENTAL /NOLOGO KERNEL32.LIB USER32.LIB GDI32.LIB WINSPOOL.LIB COMDLG32.LIB ADVAPI32.LIB SHELL32.LIB OLE32.LIB OLEAUT32.LIB UUID.LIB ODBC32.LIB ODBCCP32.LIB /MANIFEST /MANIFESTUAC:"level='asInvoker' uiAccess='false'" /manifest:embed /DEBUG:FASTLINK /PDB:"E:\ЗАГРУЗКИ\SKILLBOX17-MASTER\SKILLBOX17-MASTER\DEBUG\SKILLBOX_17.PDB" /SUBSYSTEM:CONSOLE /TLBID:1 /DYNAMICBASE /NXCOMPAT /IMPLIB:"E:\ЗАГРУЗКИ\SKILLBOX17-MASTER\SKILLBOX17-MASTER\DEBUG\SKILLBOX_17.LIB" /MACHINE:X86 DEBUG\SKILLBOX_17.OBJ
